%YAML 1.1
%TAG !u! tag:unity3d.com,2011:
--- !u!1001 &100100000
Prefab:
  m_ObjectHideFlags: 1
  serializedVersion: 2
  m_Modification:
    m_TransformParent: {fileID: 0}
    m_Modifications: []
    m_RemovedComponents: []
  m_ParentPrefab: {fileID: 0}
  m_RootGameObject: {fileID: 1199178306717426}
  m_IsPrefabParent: 1
--- !u!1 &1199178306717426
GameObject:
  m_ObjectHideFlags: 0
  m_PrefabParentObject: {fileID: 0}
  m_PrefabInternal: {fileID: 100100000}
  serializedVersion: 5
  m_Component:
  - component: {fileID: 4977491664296962}
  - component: {fileID: 114635870581182800}
  m_Layer: 0
  m_Name: Agent22
  m_TagString: Untagged
  m_Icon: {fileID: 0}
  m_NavMeshLayer: 0
  m_StaticEditorFlags: 0
  m_IsActive: 1
--- !u!4 &4977491664296962
Transform:
  m_ObjectHideFlags: 1
  m_PrefabParentObject: {fileID: 0}
  m_PrefabInternal: {fileID: 100100000}
  m_GameObject: {fileID: 1199178306717426}
  m_LocalRotation: {x: 0, y: 0, z: 0, w: 1}
  m_LocalPosition: {x: 0, y: 0, z: 0}
  m_LocalScale: {x: 1, y: 1, z: 1}
  m_Children: []
  m_Father: {fileID: 0}
  m_RootOrder: 0
  m_LocalEulerAnglesHint: {x: 0, y: 0, z: 0}
--- !u!114 &114635870581182800
MonoBehaviour:
  m_ObjectHideFlags: 1
  m_PrefabParentObject: {fileID: 0}
  m_PrefabInternal: {fileID: 100100000}
  m_GameObject: {fileID: 1199178306717426}
  m_Enabled: 1
  m_EditorHideFlags: 0
  m_Script: {fileID: 11500000, guid: a947d505e7833a14a91acb7f0fb32e3c, type: 3}
  m_Name: 
  m_EditorClassIdentifier: 
  AgentProxy:
    ShowAdvancedSettings: 0
    Position: {x: -5.307, y: 0, z: 2.04}
    GoalPositions:
    - {x: -5.687166, y: 0.06, z: 6.0995407}
    LoopGoalPositions: 1
    Radius: 0.241629
    MaxSpeed: 0.04
    CharacterPrefab: {fileID: 1876216091525128, guid: 4bcc0d73e2648634c9aaa7530ae4d7f9,
      type: 2}
    NeighborDist: 15
    MaxNeighbors: 10
    TimeHorizon: 5
    TimeHorizonObst: 5
    PresetName: Agent22
