%YAML 1.1
%TAG !u! tag:unity3d.com,2011:
--- !u!1001 &100100000
Prefab:
  m_ObjectHideFlags: 1
  serializedVersion: 2
  m_Modification:
    m_TransformParent: {fileID: 0}
    m_Modifications: []
    m_RemovedComponents: []
  m_ParentPrefab: {fileID: 0}
  m_RootGameObject: {fileID: 1326695670430332}
  m_IsPrefabParent: 1
--- !u!1 &1326695670430332
GameObject:
  m_ObjectHideFlags: 0
  m_PrefabParentObject: {fileID: 0}
  m_PrefabInternal: {fileID: 100100000}
  serializedVersion: 5
  m_Component:
  - component: {fileID: 4075711601901974}
  - component: {fileID: 114913323297993696}
  m_Layer: 0
  m_Name: Agent9
  m_TagString: Untagged
  m_Icon: {fileID: 0}
  m_NavMeshLayer: 0
  m_StaticEditorFlags: 0
  m_IsActive: 1
--- !u!4 &4075711601901974
Transform:
  m_ObjectHideFlags: 1
  m_PrefabParentObject: {fileID: 0}
  m_PrefabInternal: {fileID: 100100000}
  m_GameObject: {fileID: 1326695670430332}
  m_LocalRotation: {x: 0, y: 0, z: 0, w: 1}
  m_LocalPosition: {x: 0, y: 0, z: 0}
  m_LocalScale: {x: 1, y: 1, z: 1}
  m_Children: []
  m_Father: {fileID: 0}
  m_RootOrder: 0
  m_LocalEulerAnglesHint: {x: 0, y: 0, z: 0}
--- !u!114 &114913323297993696
MonoBehaviour:
  m_ObjectHideFlags: 1
  m_PrefabParentObject: {fileID: 0}
  m_PrefabInternal: {fileID: 100100000}
  m_GameObject: {fileID: 1326695670430332}
  m_Enabled: 1
  m_EditorHideFlags: 0
  m_Script: {fileID: 11500000, guid: a947d505e7833a14a91acb7f0fb32e3c, type: 3}
  m_Name: 
  m_EditorClassIdentifier: 
  AgentProxy:
    ShowAdvancedSettings: 0
    Position: {x: 1.827, y: 0, z: -2.372}
    GoalPositions:
    - {x: -1.3523171, y: -0.04, z: -2.372}
    LoopGoalPositions: 1
    Radius: 0.24162899
    MaxSpeed: 0.14
    CharacterPrefab: {fileID: 1327335628544698, guid: 1b120618e7a99e74c89a829629ac203a,
      type: 2}
    NeighborDist: 15
    MaxNeighbors: 10
    TimeHorizon: 5
    TimeHorizonObst: 5
    PresetName: Agent9
