%YAML 1.1
%TAG !u! tag:unity3d.com,2011:
--- !u!1001 &100100000
Prefab:
  m_ObjectHideFlags: 1
  serializedVersion: 2
  m_Modification:
    m_TransformParent: {fileID: 0}
    m_Modifications: []
    m_RemovedComponents: []
  m_ParentPrefab: {fileID: 0}
  m_RootGameObject: {fileID: 1629121669872956}
  m_IsPrefabParent: 1
--- !u!1 &1629121669872956
GameObject:
  m_ObjectHideFlags: 0
  m_PrefabParentObject: {fileID: 0}
  m_PrefabInternal: {fileID: 100100000}
  serializedVersion: 5
  m_Component:
  - component: {fileID: 4214442592143486}
  - component: {fileID: 114630079672276000}
  m_Layer: 0
  m_Name: Agent21
  m_TagString: Untagged
  m_Icon: {fileID: 0}
  m_NavMeshLayer: 0
  m_StaticEditorFlags: 0
  m_IsActive: 1
--- !u!4 &4214442592143486
Transform:
  m_ObjectHideFlags: 1
  m_PrefabParentObject: {fileID: 0}
  m_PrefabInternal: {fileID: 100100000}
  m_GameObject: {fileID: 1629121669872956}
  m_LocalRotation: {x: 0, y: 0, z: 0, w: 1}
  m_LocalPosition: {x: 0, y: 0, z: 0}
  m_LocalScale: {x: 1, y: 1, z: 1}
  m_Children: []
  m_Father: {fileID: 0}
  m_RootOrder: 0
  m_LocalEulerAnglesHint: {x: 0, y: 0, z: 0}
--- !u!114 &114630079672276000
MonoBehaviour:
  m_ObjectHideFlags: 1
  m_PrefabParentObject: {fileID: 0}
  m_PrefabInternal: {fileID: 100100000}
  m_GameObject: {fileID: 1629121669872956}
  m_Enabled: 1
  m_EditorHideFlags: 0
  m_Script: {fileID: 11500000, guid: a947d505e7833a14a91acb7f0fb32e3c, type: 3}
  m_Name: 
  m_EditorClassIdentifier: 
  AgentProxy:
    ShowAdvancedSettings: 0
    Position: {x: -5.307, y: 0, z: 2.04}
    GoalPositions:
    - {x: -6.6232777, y: 0.06, z: 3.5660603}
    LoopGoalPositions: 1
    Radius: 0.241629
    MaxSpeed: 0.26
    CharacterPrefab: {fileID: 1307239921349468, guid: d897fc01d313fec48b154ac78cc09969,
      type: 2}
    NeighborDist: 15
    MaxNeighbors: 10
    TimeHorizon: 5
    TimeHorizonObst: 5
    PresetName: Agent21
